// Jest Snapshot v1, https://goo.gl/fbAQLP

exports[`pruebas para el componente GifExpertApp debe hacer match con el snapshot 1`] = `
<Fragment>
  <h2>
    GifExpertApp
  </h2>
  <AddCategory
    setCategories={[Function]}
  />
  <hr />
</Fragment>
`;

exports[`pruebas para el componente GifExpertApp debe mostrar una lista de categorias  1`] = `
<Fragment>
  <h2>
    GifExpertApp
  </h2>
  <AddCategory
    setCategories={[Function]}
  />
  <hr />
  <GifGrid
    category="one punch"
    key="one punch"
  />
  <GifGrid
    category="dragon ball"
    key="dragon ball"
  />
</Fragment>
`;
