// Jest Snapshot v1, https://goo.gl/fbAQLP

exports[`pruebas sobre el componente GifGridItem validación de snapshot 1`] = `
<div
  className="card animate__animated  animate__fadeIn animate__delay-s"
>
  <img
    src="https://localhost:8888/imagen.jpg"
    title="Un titulo"
  />
  <p>
    Un titulo
  </p>
</div>
`;
